%YAML 1.1
%TAG !u! tag:unity3d.com,2011:
--- !u!114 &11400000
MonoBehaviour:
  m_ObjectHideFlags: 0
  m_CorrespondingSourceObject: {fileID: 0}
  m_PrefabInstance: {fileID: 0}
  m_PrefabAsset: {fileID: 0}
  m_GameObject: {fileID: 0}
  m_Enabled: 1
  m_EditorHideFlags: 0
  m_Script: {fileID: 11500000, guid: 24ec2a12d8394e640a779684c9f4692e, type: 3}
  m_Name: CheeeeeeseBurg
  m_EditorClassIdentifier: 
  Name: CheeeeeseBurg
  Ingredients:
  - {fileID: 11400000, guid: 594768327496f4740924c5d30cfd1917, type: 2}
  - {fileID: 11400000, guid: 44bb612cefec47c4b9b48f6d6bfd4419, type: 2}
  - {fileID: 11400000, guid: 8f782e8735ae2f04bb6471fa7a834409, type: 2}
  - {fileID: 11400000, guid: 8f782e8735ae2f04bb6471fa7a834409, type: 2}
  - {fileID: 11400000, guid: 8f782e8735ae2f04bb6471fa7a834409, type: 2}
