%YAML 1.1
%TAG !u! tag:unity3d.com,2011:
--- !u!1 &106088970908782047
GameObject:
  m_ObjectHideFlags: 0
  m_CorrespondingSourceObject: {fileID: 0}
  m_PrefabInstance: {fileID: 0}
  m_PrefabAsset: {fileID: 0}
  serializedVersion: 6
  m_Component:
  - component: {fileID: 7041089678048942457}
  - component: {fileID: 415101258496568631}
  - component: {fileID: 7219237591287587514}
  m_Layer: 31
  m_Name: Layer1
  m_TagString: Untagged
  m_Icon: {fileID: 0}
  m_NavMeshLayer: 0
  m_StaticEditorFlags: 0
  m_IsActive: 1
--- !u!4 &7041089678048942457
Transform:
  m_ObjectHideFlags: 0
  m_CorrespondingSourceObject: {fileID: 0}
  m_PrefabInstance: {fileID: 0}
  m_PrefabAsset: {fileID: 0}
  m_GameObject: {fileID: 106088970908782047}
  m_LocalRotation: {x: -0, y: -0, z: -0, w: 1}
  m_LocalPosition: {x: 0, y: 0, z: 0}
  m_LocalScale: {x: 1, y: 1, z: 1}
  m_Children: []
  m_Father: {fileID: 6565806196476256403}
  m_RootOrder: 0
  m_LocalEulerAnglesHint: {x: 0, y: 0, z: 0}
--- !u!1839735485 &415101258496568631
Tilemap:
  m_ObjectHideFlags: 0
  m_CorrespondingSourceObject: {fileID: 0}
  m_PrefabInstance: {fileID: 0}
  m_PrefabAsset: {fileID: 0}
  m_GameObject: {fileID: 106088970908782047}
  m_Enabled: 1
  m_Tiles:
  - first: {x: -7, y: -4, z: 0}
    second:
      m_TileIndex: 17
      m_TileSpriteIndex: 15
      m_TileMatrixIndex: 0
      m_TileColorIndex: 0
      m_ObjectToInstantiate: {fileID: 0}
      m_TileFlags: 1
      m_ColliderType: 1
  - first: {x: -6, y: -4, z: 0}
    second:
      m_TileIndex: 18
      m_TileSpriteIndex: 16
      m_TileMatrixIndex: 0
      m_TileColorIndex: 0
      m_ObjectToInstantiate: {fileID: 0}
      m_TileFlags: 1
      m_ColliderType: 1
  - first: {x: -7, y: -3, z: 0}
    second:
      m_TileIndex: 14
      m_TileSpriteIndex: 12
      m_TileMatrixIndex: 0
      m_TileColorIndex: 0
      m_ObjectToInstantiate: {fileID: 0}
      m_TileFlags: 1
      m_ColliderType: 1
  - first: {x: -6, y: -3, z: 0}
    second:
      m_TileIndex: 15
      m_TileSpriteIndex: 13
      m_TileMatrixIndex: 0
      m_TileColorIndex: 0
      m_ObjectToInstantiate: {fileID: 0}
      m_TileFlags: 1
      m_ColliderType: 1
  - first: {x: -5, y: -3, z: 0}
    second:
      m_TileIndex: 16
      m_TileSpriteIndex: 14
      m_TileMatrixIndex: 0
      m_TileColorIndex: 0
      m_ObjectToInstantiate: {fileID: 0}
      m_TileFlags: 1
      m_ColliderType: 1
  - first: {x: -7, y: -2, z: 0}
    second:
      m_TileIndex: 11
      m_TileSpriteIndex: 9
      m_TileMatrixIndex: 0
      m_TileColorIndex: 0
      m_ObjectToInstantiate: {fileID: 0}
      m_TileFlags: 1
      m_ColliderType: 1
  - first: {x: -6, y: -2, z: 0}
    second:
      m_TileIndex: 12
      m_TileSpriteIndex: 10
      m_TileMatrixIndex: 0
      m_TileColorIndex: 0
      m_ObjectToInstantiate: {fileID: 0}
      m_TileFlags: 1
      m_ColliderType: 1
  - first: {x: -5, y: -2, z: 0}
    second:
      m_TileIndex: 13
      m_TileSpriteIndex: 11
      m_TileMatrixIndex: 0
      m_TileColorIndex: 0
      m_ObjectToInstantiate: {fileID: 0}
      m_TileFlags: 1
      m_ColliderType: 1
  - first: {x: -1, y: 0, z: 0}
    second:
      m_TileIndex: 0
      m_TileSpriteIndex: 0
      m_TileMatrixIndex: 0
      m_TileColorIndex: 0
      m_ObjectToInstantiate: {fileID: 0}
      m_TileFlags: 1
      m_ColliderType: 1
  - first: {x: 0, y: 0, z: 0}
    second:
      m_TileIndex: 1
      m_TileSpriteIndex: 1
      m_TileMatrixIndex: 0
      m_TileColorIndex: 0
      m_ObjectToInstantiate: {fileID: 0}
      m_TileFlags: 1
      m_ColliderType: 1
  - first: {x: 1, y: 0, z: 0}
    second:
      m_TileIndex: 2
      m_TileSpriteIndex: 2
      m_TileMatrixIndex: 0
      m_TileColorIndex: 0
      m_ObjectToInstantiate: {fileID: 0}
      m_TileFlags: 1
      m_ColliderType: 1
  - first: {x: 2, y: 0, z: 0}
    second:
      m_TileIndex: 3
      m_TileSpriteIndex: 3
      m_TileMatrixIndex: 0
      m_TileColorIndex: 0
      m_ObjectToInstantiate: {fileID: 0}
      m_TileFlags: 1
      m_ColliderType: 1
  - first: {x: -7, y: 1, z: 0}
    second:
      m_TileIndex: 10
      m_TileSpriteIndex: 7
      m_TileMatrixIndex: 0
      m_TileColorIndex: 0
      m_ObjectToInstantiate: {fileID: 0}
      m_TileFlags: 2
      m_ColliderType: 1
  - first: {x: -7, y: 3, z: 0}
    second:
      m_TileIndex: 5
      m_TileSpriteIndex: 4
      m_TileMatrixIndex: 0
      m_TileColorIndex: 0
      m_ObjectToInstantiate: {fileID: 0}
      m_TileFlags: 1
      m_ColliderType: 1
  - first: {x: -6, y: 3, z: 0}
    second:
      m_TileIndex: 6
      m_TileSpriteIndex: 5
      m_TileMatrixIndex: 0
      m_TileColorIndex: 0
      m_ObjectToInstantiate: {fileID: 0}
      m_TileFlags: 1
      m_ColliderType: 1
  - first: {x: -5, y: 3, z: 0}
    second:
      m_TileIndex: 7
      m_TileSpriteIndex: 6
      m_TileMatrixIndex: 0
      m_TileColorIndex: 0
      m_ObjectToInstantiate: {fileID: 0}
      m_TileFlags: 1
      m_ColliderType: 1
  - first: {x: -4, y: 3, z: 0}
    second:
      m_TileIndex: 8
      m_TileSpriteIndex: 7
      m_TileMatrixIndex: 0
      m_TileColorIndex: 0
      m_ObjectToInstantiate: {fileID: 0}
      m_TileFlags: 1
      m_ColliderType: 1
  - first: {x: -3, y: 3, z: 0}
    second:
      m_TileIndex: 9
      m_TileSpriteIndex: 8
      m_TileMatrixIndex: 0
      m_TileColorIndex: 0
      m_ObjectToInstantiate: {fileID: 0}
      m_TileFlags: 1
      m_ColliderType: 1
  - first: {x: -1, y: 3, z: 0}
    second:
      m_TileIndex: 4
      m_TileSpriteIndex: 4294967295
      m_TileMatrixIndex: 0
      m_TileColorIndex: 0
      m_ObjectToInstantiate: {fileID: 0}
      m_TileFlags: 2
      m_ColliderType: 1
  m_AnimatedTiles: {}
  m_TileAssetArray:
  - m_RefCount: 1
    m_Data: {fileID: 11400000, guid: 2a2b6150bd5fe534088871b23e9dea3d, type: 2}
  - m_RefCount: 1
    m_Data: {fileID: 11400000, guid: 8176762ab0c28c847b76f9125290357e, type: 2}
  - m_RefCount: 1
    m_Data: {fileID: 11400000, guid: 5775443fdfe0d8b43b881458dd5c26cf, type: 2}
  - m_RefCount: 1
    m_Data: {fileID: 11400000, guid: 0ad75034260692a41b17defe5a6f1b5a, type: 2}
  - m_RefCount: 1
    m_Data: {fileID: 11400000, guid: 67d2f2d39cd9a8d4aaf9898e02464a6d, type: 2}
  - m_RefCount: 1
    m_Data: {fileID: 11400000, guid: 609df452f1e5f944082ca2b6dfbeea14, type: 2}
  - m_RefCount: 1
    m_Data: {fileID: 11400000, guid: 3e36094c184d6b146b267f40d6d03475, type: 2}
  - m_RefCount: 1
    m_Data: {fileID: 11400000, guid: 394a412f56b8aa3448b439f05998e92c, type: 2}
  - m_RefCount: 1
    m_Data: {fileID: 11400000, guid: 3a63f8e2477eb1f429f054c68a638b1e, type: 2}
  - m_RefCount: 1
    m_Data: {fileID: 11400000, guid: 679abb3677dfd6f45951ddcf3e198a27, type: 2}
  - m_RefCount: 1
    m_Data: {fileID: 11400000, guid: db1083416ac63934eaabd2d0b21ab562, type: 2}
  - m_RefCount: 1
    m_Data: {fileID: 11400000, guid: 2f2aa5f0c3e699a45b8e75e3fd19ab63, type: 2}
  - m_RefCount: 1
    m_Data: {fileID: 11400000, guid: 010bac43ce66fb64285b2ca3d4f0b734, type: 2}
  - m_RefCount: 1
    m_Data: {fileID: 11400000, guid: 9d4dc6fa2f2b812478b2153ada1e5644, type: 2}
  - m_RefCount: 1
    m_Data: {fileID: 11400000, guid: 08b753d94751a54468f2f9f36389d0e7, type: 2}
  - m_RefCount: 1
    m_Data: {fileID: 11400000, guid: 4630baad80333394caecf9ee746ed5de, type: 2}
  - m_RefCount: 1
    m_Data: {fileID: 11400000, guid: d95522cc65fdf3246af0b581d19e382a, type: 2}
  - m_RefCount: 1
    m_Data: {fileID: 11400000, guid: 3b6f786db46b26044b92238da76312b3, type: 2}
  - m_RefCount: 1
    m_Data: {fileID: 11400000, guid: 8ee998b6385191b4cb9d0778d5b55fe7, type: 2}
  m_TileSpriteArray:
  - m_RefCount: 1
    m_Data: {fileID: 21300000, guid: ed51e916a2d44eb4f99e964b08dc69fb, type: 3}
  - m_RefCount: 1
    m_Data: {fileID: 21300002, guid: ed51e916a2d44eb4f99e964b08dc69fb, type: 3}
  - m_RefCount: 1
    m_Data: {fileID: 21300004, guid: ed51e916a2d44eb4f99e964b08dc69fb, type: 3}
  - m_RefCount: 1
    m_Data: {fileID: 21300006, guid: ed51e916a2d44eb4f99e964b08dc69fb, type: 3}
  - m_RefCount: 1
    m_Data: {fileID: 21300000, guid: 1fe956f300ddd8944b789aacabc66969, type: 3}
  - m_RefCount: 1
    m_Data: {fileID: 21300002, guid: 1fe956f300ddd8944b789aacabc66969, type: 3}
  - m_RefCount: 1
    m_Data: {fileID: 21300004, guid: 1fe956f300ddd8944b789aacabc66969, type: 3}
  - m_RefCount: 2
    m_Data: {fileID: 21300006, guid: 1fe956f300ddd8944b789aacabc66969, type: 3}
  - m_RefCount: 1
    m_Data: {fileID: 21300008, guid: 1fe956f300ddd8944b789aacabc66969, type: 3}
  - m_RefCount: 1
    m_Data: {fileID: 21300000, guid: 8be74370656a7214cbe5c5d021511a4c, type: 3}
  - m_RefCount: 1
    m_Data: {fileID: 21300000, guid: 1274f9b068c8feb4382304a43d0d486c, type: 3}
  - m_RefCount: 1
    m_Data: {fileID: 21300000, guid: f0e117018b44898478d261c3e83ce57e, type: 3}
  - m_RefCount: 1
    m_Data: {fileID: 21300000, guid: 8597fa02ef1fefc4d9656fa129e700d4, type: 3}
  - m_RefCount: 1
    m_Data: {fileID: 21300000, guid: b0c976823c996d1468867cd905b7aae5, type: 3}
  - m_RefCount: 1
    m_Data: {fileID: 21300000, guid: 48df311361ce0594b945e233d0244ef8, type: 3}
  - m_RefCount: 1
    m_Data: {fileID: 21300000, guid: 00c4cbc3b1801e34c9c91f438066683d, type: 3}
  - m_RefCount: 1
    m_Data: {fileID: 21300000, guid: f15657b980576a94695ae8d6a0e050cd, type: 3}
  m_TileMatrixArray:
  - m_RefCount: 19
    m_Data:
      e00: 1
      e01: 0
      e02: 0
      e03: 0
      e10: 0
      e11: 1
      e12: 0
      e13: 0
      e20: 0
      e21: 0
      e22: 1
      e23: 0
      e30: 0
      e31: 0
      e32: 0
      e33: 1
  m_TileColorArray:
  - m_RefCount: 19
    m_Data: {r: 1, g: 1, b: 1, a: 1}
  m_AnimationFrameRate: 1
  m_Color: {r: 1, g: 1, b: 1, a: 1}
  m_Origin: {x: -7, y: -4, z: 0}
  m_Size: {x: 10, y: 8, z: 1}
  m_TileAnchor: {x: 0.5, y: 0.5, z: 0}
  m_TileOrientation: 0
  m_TileOrientationMatrix:
    e00: 1
    e01: 0
    e02: 0
    e03: 0
    e10: 0
    e11: 1
    e12: 0
    e13: 0
    e20: 0
    e21: 0
    e22: 1
    e23: 0
    e30: 0
    e31: 0
    e32: 0
    e33: 1
--- !u!483693784 &7219237591287587514
TilemapRenderer:
  m_ObjectHideFlags: 0
  m_CorrespondingSourceObject: {fileID: 0}
  m_PrefabInstance: {fileID: 0}
  m_PrefabAsset: {fileID: 0}
  m_GameObject: {fileID: 106088970908782047}
  m_Enabled: 0
  m_CastShadows: 0
  m_ReceiveShadows: 0
  m_DynamicOccludee: 0
  m_MotionVectors: 1
  m_LightProbeUsage: 0
  m_ReflectionProbeUsage: 0
  m_RenderingLayerMask: 1
  m_RendererPriority: 0
  m_Materials:
  - {fileID: 10754, guid: 0000000000000000f000000000000000, type: 0}
  m_StaticBatchInfo:
    firstSubMesh: 0
    subMeshCount: 0
  m_StaticBatchRoot: {fileID: 0}
  m_ProbeAnchor: {fileID: 0}
  m_LightProbeVolumeOverride: {fileID: 0}
  m_ScaleInLightmap: 1
  m_PreserveUVs: 0
  m_IgnoreNormalsForChartDetection: 0
  m_ImportantGI: 0
  m_StitchLightmapSeams: 0
  m_SelectedEditorRenderState: 0
  m_MinimumChartSize: 4
  m_AutoUVMaxDistance: 0.5
  m_AutoUVMaxAngle: 89
  m_LightmapParameters: {fileID: 0}
  m_SortingLayerID: 0
  m_SortingLayer: 0
  m_SortingOrder: 0
  m_ChunkSize: {x: 32, y: 32, z: 32}
  m_ChunkCullingBounds: {x: 0, y: 0, z: 0}
  m_MaxChunkCount: 16
  m_MaxFrameAge: 16
  m_SortOrder: 0
  m_Mode: 0
  m_DetectChunkCullingBounds: 0
  m_MaskInteraction: 0
--- !u!1 &4377769440575169556
GameObject:
  m_ObjectHideFlags: 0
  m_CorrespondingSourceObject: {fileID: 0}
  m_PrefabInstance: {fileID: 0}
  m_PrefabAsset: {fileID: 0}
  serializedVersion: 6
  m_Component:
  - component: {fileID: 6565806196476256403}
  - component: {fileID: 7984279854606548592}
  m_Layer: 31
  m_Name: New Palette
  m_TagString: Untagged
  m_Icon: {fileID: 0}
  m_NavMeshLayer: 0
  m_StaticEditorFlags: 0
  m_IsActive: 1
--- !u!4 &6565806196476256403
Transform:
  m_ObjectHideFlags: 0
  m_CorrespondingSourceObject: {fileID: 0}
  m_PrefabInstance: {fileID: 0}
  m_PrefabAsset: {fileID: 0}
  m_GameObject: {fileID: 4377769440575169556}
  m_LocalRotation: {x: 0, y: 0, z: 0, w: 1}
  m_LocalPosition: {x: 0, y: 0, z: 0}
  m_LocalScale: {x: 1, y: 1, z: 1}
  m_Children:
  - {fileID: 7041089678048942457}
  m_Father: {fileID: 0}
  m_RootOrder: 0
  m_LocalEulerAnglesHint: {x: 0, y: 0, z: 0}
--- !u!156049354 &7984279854606548592
Grid:
  m_ObjectHideFlags: 0
  m_CorrespondingSourceObject: {fileID: 0}
  m_PrefabInstance: {fileID: 0}
  m_PrefabAsset: {fileID: 0}
  m_GameObject: {fileID: 4377769440575169556}
  m_Enabled: 1
  m_CellSize: {x: 1, y: 1, z: 0}
  m_CellGap: {x: 0, y: 0, z: 0}
  m_CellLayout: 0
  m_CellSwizzle: 0
--- !u!114 &114466780576094834
MonoBehaviour:
  m_ObjectHideFlags: 0
  m_CorrespondingSourceObject: {fileID: 0}
  m_PrefabInstance: {fileID: 0}
  m_PrefabAsset: {fileID: 0}
  m_GameObject: {fileID: 0}
  m_Enabled: 1
  m_EditorHideFlags: 0
  m_Script: {fileID: 12395, guid: 0000000000000000e000000000000000, type: 0}
  m_Name: Palette Settings
  m_EditorClassIdentifier: 
  cellSizing: 0
