%YAML 1.1
%TAG !u! tag:unity3d.com,2011:
--- !u!114 &11400000
MonoBehaviour:
  m_ObjectHideFlags: 0
  m_CorrespondingSourceObject: {fileID: 0}
  m_PrefabInstance: {fileID: 0}
  m_PrefabAsset: {fileID: 0}
  m_GameObject: {fileID: 0}
  m_Enabled: 1
  m_EditorHideFlags: 0
  m_Script: {fileID: 11500000, guid: ee5053da865388144a1807db55860045, type: 3}
  m_Name: Floor1
  m_EditorClassIdentifier: 
  FloorTile: {fileID: 11400000, guid: d95522cc65fdf3246af0b581d19e382a, type: 2}
  Walls: {fileID: 11400000, guid: db1083416ac63934eaabd2d0b21ab562, type: 2}
  NoiseScale: 0.05
  Width: 100
  Height: 100
  EdgeGradient: 10
  FixedFloorItems:
  - Object: {fileID: 1627490726303035510, guid: e8c5df818eb0a044995e2b3a6b1dcdaa,
      type: 3}
    Pos: {x: 0, y: 0, z: -2}
  ToSpawnRandomly:
  - {fileID: 5455803558690010068, guid: 46eaa1a57536463448c4c59b141ad297, type: 3}
  UseExactSeed: 0
  Seed: 666
  Ingredients:
  - {fileID: 11400000, guid: 594768327496f4740924c5d30cfd1917, type: 2}
  - {fileID: 11400000, guid: 8f782e8735ae2f04bb6471fa7a834409, type: 2}
  - {fileID: 11400000, guid: 17b313731851a9445a05891e3668cd9d, type: 2}
  - {fileID: 11400000, guid: 44bb612cefec47c4b9b48f6d6bfd4419, type: 2}
  - {fileID: 11400000, guid: 6ab7f6e5ebd23104fb96f3c06507d46e, type: 2}
  - {fileID: 11400000, guid: 594768327496f4740924c5d30cfd1917, type: 2}
  - {fileID: 11400000, guid: 8f782e8735ae2f04bb6471fa7a834409, type: 2}
  - {fileID: 11400000, guid: 17b313731851a9445a05891e3668cd9d, type: 2}
  - {fileID: 11400000, guid: 44bb612cefec47c4b9b48f6d6bfd4419, type: 2}
  - {fileID: 11400000, guid: 6ab7f6e5ebd23104fb96f3c06507d46e, type: 2}
  - {fileID: 11400000, guid: 594768327496f4740924c5d30cfd1917, type: 2}
  - {fileID: 11400000, guid: 8f782e8735ae2f04bb6471fa7a834409, type: 2}
  - {fileID: 11400000, guid: 17b313731851a9445a05891e3668cd9d, type: 2}
  - {fileID: 11400000, guid: 44bb612cefec47c4b9b48f6d6bfd4419, type: 2}
  - {fileID: 11400000, guid: 6ab7f6e5ebd23104fb96f3c06507d46e, type: 2}
  - {fileID: 11400000, guid: 594768327496f4740924c5d30cfd1917, type: 2}
  - {fileID: 11400000, guid: 8f782e8735ae2f04bb6471fa7a834409, type: 2}
  - {fileID: 11400000, guid: 17b313731851a9445a05891e3668cd9d, type: 2}
  - {fileID: 11400000, guid: 44bb612cefec47c4b9b48f6d6bfd4419, type: 2}
  - {fileID: 11400000, guid: 6ab7f6e5ebd23104fb96f3c06507d46e, type: 2}
  DarkColor: {r: 0.039215688, g: 0.039215688, b: 0.039215688, a: 0}
  LightColor: {r: 0.08627451, g: 0.08235294, b: 0.078431375, a: 0}
  AreaLightMultiplier: 0.5
  FlashlightMultiplier: 0.5
  LoopingAudioMixerGroup: {fileID: 243876565177354104, guid: fd4233ac3beedc64f9bc5e94236bef40,
    type: 2}
  AmbianceAudioMixerGroup: {fileID: 243876565177354104, guid: fd4233ac3beedc64f9bc5e94236bef40,
    type: 2}
  DEBUG_DO_NOT_USE: 0
