%YAML 1.1
%TAG !u! tag:unity3d.com,2011:
--- !u!114 &11400000
MonoBehaviour:
  m_ObjectHideFlags: 0
  m_CorrespondingSourceObject: {fileID: 0}
  m_PrefabInstance: {fileID: 0}
  m_PrefabAsset: {fileID: 0}
  m_GameObject: {fileID: 0}
  m_Enabled: 1
  m_EditorHideFlags: 0
  m_Script: {fileID: 11500000, guid: d80594b99736026439b637d920ebc1f8, type: 3}
  m_Name: Idle_E
  m_EditorClassIdentifier: 
  Sprites:
  - {fileID: 21300000, guid: ce4991bf7c1452e4b88b58d7e2a17acd, type: 3}
  - {fileID: 21300000, guid: a90607e80767a8e4aaf166bc35d62181, type: 3}
  - {fileID: 21300000, guid: 17e9faf93676ac345b416fcc98b8b442, type: 3}
  FPS: 4
  EndBehavior: 1
