%YAML 1.1
%TAG !u! tag:unity3d.com,2011:
--- !u!114 &11400000
MonoBehaviour:
  m_ObjectHideFlags: 0
  m_CorrespondingSourceObject: {fileID: 0}
  m_PrefabInstance: {fileID: 0}
  m_PrefabAsset: {fileID: 0}
  m_GameObject: {fileID: 0}
  m_Enabled: 1
  m_EditorHideFlags: 0
  m_Script: {fileID: 11500000, guid: d80594b99736026439b637d920ebc1f8, type: 3}
  m_Name: Run_E
  m_EditorClassIdentifier: 
  Sprites:
  - {fileID: 21300000, guid: 5a0ca9526846ae44eacf0baa42530ac9, type: 3}
  - {fileID: 21300000, guid: 03cb986031efad240bf0eccc105a7f86, type: 3}
  - {fileID: 21300000, guid: a549d23433b71ee48a89d2a41df1b23c, type: 3}
  - {fileID: 21300000, guid: 7a2075691086ed54e88ea268ec070bbd, type: 3}
  FPS: 6
  EndBehavior: 1
  MirrorX: 0
  MirrorY: 0
