%YAML 1.1
%TAG !u! tag:unity3d.com,2011:
--- !u!114 &11400000
MonoBehaviour:
  m_ObjectHideFlags: 0
  m_CorrespondingSourceObject: {fileID: 0}
  m_PrefabInstance: {fileID: 0}
  m_PrefabAsset: {fileID: 0}
  m_GameObject: {fileID: 0}
  m_Enabled: 1
  m_EditorHideFlags: 0
  m_Script: {fileID: 11500000, guid: d968bfae329f13a4f8dae32c2bb0027c, type: 3}
  m_Name: Onion
  m_EditorClassIdentifier: 
  Name: Onion
  OverworldIcon: {fileID: 21300000, guid: 04e0a9abbdffcdc44bd6a64b1a8d9823, type: 3}
  InventoryIcon: {fileID: 21300000, guid: 04e0a9abbdffcdc44bd6a64b1a8d9823, type: 3}
  BaseSecondsWillStayFreshFor: 15
